{
  "cordova-plugin-console": {
    "source": {
      "type": "registry",
      "id": "cordova-plugin-console@^1.0.5"
    },
    "is_top_level": true,
    "variables": {}
  },
  "cordova-plugin-device": {
    "source": {
      "type": "registry",
      "id": "cordova-plugin-device@^1.1.4"
    },
    "is_top_level": true,
    "variables": {}
  },
  "cordova-plugin-splashscreen": {
    "source": {
      "type": "registry",
      "id": "cordova-plugin-splashscreen@^4.0.3"
    },
    "is_top_level": true,
    "variables": {}
  },
  "cordova-plugin-statusbar": {
    "source": {
      "type": "registry",
      "id": "cordova-plugin-statusbar@^2.2.2"
    },
    "is_top_level": true,
    "variables": {}
  },
  "cordova-plugin-whitelist": {
    "source": {
      "type": "registry",
      "id": "cordova-plugin-whitelist@^1.3.1"
    },
    "is_top_level": true,
    "variables": {}
  },
  "cordova-plugin-accountkit": {
    "source": {
      "type": "registry",
      "id": "cordova-plugin-accountkit@^1.4.0"
    },
    "is_top_level": true,
    "variables": {
      "APP_ID": "767580770058358",
      "APP_NAME": "CodeSundar Labs",
      "CLIENT_TOKEN": "6d97e93101b1681dfcb868539f6161ea",
      "API_VERSION": "v1.1"
    }
  },
  "cordova-plugin-geolocation": {
    "source": {
      "type": "registry",
      "id": "cordova-plugin-geolocation@^2.4.3"
    },
    "is_top_level": true,
    "variables": {}
  },
  "cordova-plugin-compat": {
    "source": {
      "type": "registry",
      "id": "cordova-plugin-compat@^1.0.0"
    },
    "is_top_level": false,
    "variables": {}
  },
  "ionic-plugin-keyboard": {
    "source": {
      "type": "registry",
      "id": "ionic-plugin-keyboard@^2.2.1"
    },
    "is_top_level": true,
    "variables": {}
  }
}